<svg width="227" height="227" viewBox="0 0 227 227" fill="none" xmlns="http://www.w3.org/2000/svg">
<circle cx="113.5" cy="113.5" r="113.5" fill="url(#paint0_linear)"/>
<path d="M150 68C97.6679 108.88 76 192 76 192C76 192 84.7059 184.115 103.569 181.169" stroke="white" stroke-width="3"/>
<path d="M88.9431 151C78.0563 145.925 78.4406 136.371 79.5078 129.975C81.6852 116.925 96.201 110.4 100.556 108.95C104.91 107.5 109.991 101.7 107.088 93.725C104.185 85.75 106.362 77.05 109.265 72.7C112.168 68.35 141.2 35 141.2 35C142.586 41.5099 142.117 42.975 140.207 53.125C138.297 63.275 135.661 67.625 141.2 73.425" stroke="white" stroke-width="3"/>
<defs>
<linearGradient id="paint0_linear" x1="35" y1="33" x2="196" y2="192" gradientUnits="userSpaceOnUse">
<stop stop-color="#700D89"/>
<stop offset="1" stop-color="#241842"/>
</linearGradient>
</defs>
</svg>
